^C:\USERS\패닉\DOCUMENTS\VISUAL STUDIO 2015\PROJECTS\NOXCRYPT-MASTER\NOXMAPFILESVIEWER\NOXMAPFILESVIEWER\ITEMOPTIONHANDLE.C
/c /Zi /nologo /W3 /WX- /sdl /O2 /Oi /Oy- /GL /D WIN32 /D NDEBUG /D _WINDOWS /D _UNICODE /D UNICODE /Gm- /EHsc /MT /GS /Gy /fp:precise /Zc:wchar_t /Zc:forScope /Zc:inline /Fo"RELEASE\\" /Fd"RELEASE\VC140.PDB" /Gd /TC /analyze- C:\USERS\패닉\DOCUMENTS\VISUAL STUDIO 2015\PROJECTS\NOXCRYPT-MASTER\NOXMAPFILESVIEWER\NOXMAPFILESVIEWER\ITEMOPTIONHANDLE.C
^C:\USERS\패닉\DOCUMENTS\VISUAL STUDIO 2015\PROJECTS\NOXCRYPT-MASTER\NOXMAPFILESVIEWER\NOXMAPFILESVIEWER\MAPCOMPRESS.C
/c /Zi /nologo /W3 /WX- /sdl /O2 /Oi /Oy- /GL /D WIN32 /D NDEBUG /D _WINDOWS /D _UNICODE /D UNICODE /Gm- /EHsc /MT /GS /Gy /fp:precise /Zc:wchar_t /Zc:forScope /Zc:inline /Fo"RELEASE\\" /Fd"RELEASE\VC140.PDB" /Gd /TC /analyze- C:\USERS\패닉\DOCUMENTS\VISUAL STUDIO 2015\PROJECTS\NOXCRYPT-MASTER\NOXMAPFILESVIEWER\NOXMAPFILESVIEWER\MAPCOMPRESS.C
^C:\USERS\패닉\DOCUMENTS\VISUAL STUDIO 2015\PROJECTS\NOXCRYPT-MASTER\NOXMAPFILESVIEWER\NOXMAPFILESVIEWER\MAPSCRIPT.C
/c /Zi /nologo /W3 /WX- /sdl /O2 /Oi /Oy- /GL /D WIN32 /D NDEBUG /D _WINDOWS /D _UNICODE /D UNICODE /Gm- /EHsc /MT /GS /Gy /fp:precise /Zc:wchar_t /Zc:forScope /Zc:inline /Fo"RELEASE\\" /Fd"RELEASE\VC140.PDB" /Gd /TC /analyze- C:\USERS\패닉\DOCUMENTS\VISUAL STUDIO 2015\PROJECTS\NOXCRYPT-MASTER\NOXMAPFILESVIEWER\NOXMAPFILESVIEWER\MAPSCRIPT.C
^C:\USERS\패닉\DOCUMENTS\VISUAL STUDIO 2015\PROJECTS\NOXCRYPT-MASTER\NOXMAPFILESVIEWER\NOXMAPFILESVIEWER\MYAPPTEXTUI.C
/c /Zi /nologo /W3 /WX- /sdl /O2 /Oi /Oy- /GL /D WIN32 /D NDEBUG /D _WINDOWS /D _UNICODE /D UNICODE /Gm- /EHsc /MT /GS /Gy /fp:precise /Zc:wchar_t /Zc:forScope /Zc:inline /Fo"RELEASE\\" /Fd"RELEASE\VC140.PDB" /Gd /TC /analyze- C:\USERS\패닉\DOCUMENTS\VISUAL STUDIO 2015\PROJECTS\NOXCRYPT-MASTER\NOXMAPFILESVIEWER\NOXMAPFILESVIEWER\MYAPPTEXTUI.C
^C:\USERS\패닉\DOCUMENTS\VISUAL STUDIO 2015\PROJECTS\NOXCRYPT-MASTER\NOXMAPFILESVIEWER\NOXMAPFILESVIEWER\MYMESSAGEHANDLER.C
/c /Zi /nologo /W3 /WX- /sdl /O2 /Oi /Oy- /GL /D WIN32 /D NDEBUG /D _WINDOWS /D _UNICODE /D UNICODE /Gm- /EHsc /MT /GS /Gy /fp:precise /Zc:wchar_t /Zc:forScope /Zc:inline /Fo"RELEASE\\" /Fd"RELEASE\VC140.PDB" /Gd /TC /analyze- C:\USERS\패닉\DOCUMENTS\VISUAL STUDIO 2015\PROJECTS\NOXCRYPT-MASTER\NOXMAPFILESVIEWER\NOXMAPFILESVIEWER\MYMESSAGEHANDLER.C
^C:\USERS\패닉\DOCUMENTS\VISUAL STUDIO 2015\PROJECTS\NOXCRYPT-MASTER\NOXMAPFILESVIEWER\NOXMAPFILESVIEWER\NOXCRYPTAPI.C
/c /Zi /nologo /W3 /WX- /sdl /O2 /Oi /Oy- /GL /D WIN32 /D NDEBUG /D _WINDOWS /D _UNICODE /D UNICODE /Gm- /EHsc /MT /GS /Gy /fp:precise /Zc:wchar_t /Zc:forScope /Zc:inline /Fo"RELEASE\\" /Fd"RELEASE\VC140.PDB" /Gd /TC /analyze- C:\USERS\패닉\DOCUMENTS\VISUAL STUDIO 2015\PROJECTS\NOXCRYPT-MASTER\NOXMAPFILESVIEWER\NOXMAPFILESVIEWER\NOXCRYPTAPI.C
^C:\USERS\패닉\DOCUMENTS\VISUAL STUDIO 2015\PROJECTS\NOXCRYPT-MASTER\NOXMAPFILESVIEWER\NOXMAPFILESVIEWER\CTRLDRAW.C
/c /Zi /nologo /W3 /WX- /sdl /O2 /Oi /Oy- /GL /D WIN32 /D NDEBUG /D _WINDOWS /D _UNICODE /D UNICODE /Gm- /EHsc /MT /GS /Gy /fp:precise /Zc:wchar_t /Zc:forScope /Zc:inline /Fo"RELEASE\\" /Fd"RELEASE\VC140.PDB" /Gd /TC /analyze- C:\USERS\패닉\DOCUMENTS\VISUAL STUDIO 2015\PROJECTS\NOXCRYPT-MASTER\NOXMAPFILESVIEWER\NOXMAPFILESVIEWER\CTRLDRAW.C
^C:\USERS\패닉\DOCUMENTS\VISUAL STUDIO 2015\PROJECTS\NOXCRYPT-MASTER\NOXMAPFILESVIEWER\NOXMAPFILESVIEWER\EXCLUDEMAPDLG.C
/c /Zi /nologo /W3 /WX- /sdl /O2 /Oi /Oy- /GL /D WIN32 /D NDEBUG /D _WINDOWS /D _UNICODE /D UNICODE /Gm- /EHsc /MT /GS /Gy /fp:precise /Zc:wchar_t /Zc:forScope /Zc:inline /Fo"RELEASE\\" /Fd"RELEASE\VC140.PDB" /Gd /TC /analyze- C:\USERS\패닉\DOCUMENTS\VISUAL STUDIO 2015\PROJECTS\NOXCRYPT-MASTER\NOXMAPFILESVIEWER\NOXMAPFILESVIEWER\EXCLUDEMAPDLG.C
^C:\USERS\패닉\DOCUMENTS\VISUAL STUDIO 2015\PROJECTS\NOXCRYPT-MASTER\NOXMAPFILESVIEWER\NOXMAPFILESVIEWER\FILTEREDITDLG.C
/c /Zi /nologo /W3 /WX- /sdl /O2 /Oi /Oy- /GL /D WIN32 /D NDEBUG /D _WINDOWS /D _UNICODE /D UNICODE /Gm- /EHsc /MT /GS /Gy /fp:precise /Zc:wchar_t /Zc:forScope /Zc:inline /Fo"RELEASE\\" /Fd"RELEASE\VC140.PDB" /Gd /TC /analyze- C:\USERS\패닉\DOCUMENTS\VISUAL STUDIO 2015\PROJECTS\NOXCRYPT-MASTER\NOXMAPFILESVIEWER\NOXMAPFILESVIEWER\FILTEREDITDLG.C
^C:\USERS\패닉\DOCUMENTS\VISUAL STUDIO 2015\PROJECTS\NOXCRYPT-MASTER\NOXMAPFILESVIEWER\NOXMAPFILESVIEWER\HOTTOOLS.C
/c /Zi /nologo /W3 /WX- /sdl /O2 /Oi /Oy- /GL /D WIN32 /D NDEBUG /D _WINDOWS /D _UNICODE /D UNICODE /Gm- /EHsc /MT /GS /Gy /fp:precise /Zc:wchar_t /Zc:forScope /Zc:inline /Fo"RELEASE\\" /Fd"RELEASE\VC140.PDB" /Gd /TC /analyze- C:\USERS\패닉\DOCUMENTS\VISUAL STUDIO 2015\PROJECTS\NOXCRYPT-MASTER\NOXMAPFILESVIEWER\NOXMAPFILESVIEWER\HOTTOOLS.C
^C:\USERS\패닉\DOCUMENTS\VISUAL STUDIO 2015\PROJECTS\NOXCRYPT-MASTER\NOXMAPFILESVIEWER\NOXMAPFILESVIEWER\LISTVIEWHANDLER.C
/c /Zi /nologo /W3 /WX- /sdl /O2 /Oi /Oy- /GL /D WIN32 /D NDEBUG /D _WINDOWS /D _UNICODE /D UNICODE /Gm- /EHsc /MT /GS /Gy /fp:precise /Zc:wchar_t /Zc:forScope /Zc:inline /Fo"RELEASE\\" /Fd"RELEASE\VC140.PDB" /Gd /TC /analyze- C:\USERS\패닉\DOCUMENTS\VISUAL STUDIO 2015\PROJECTS\NOXCRYPT-MASTER\NOXMAPFILESVIEWER\NOXMAPFILESVIEWER\LISTVIEWHANDLER.C
^C:\USERS\패닉\DOCUMENTS\VISUAL STUDIO 2015\PROJECTS\NOXCRYPT-MASTER\NOXMAPFILESVIEWER\NOXMAPFILESVIEWER\LOADDIR.C
/c /Zi /nologo /W3 /WX- /sdl /O2 /Oi /Oy- /GL /D WIN32 /D NDEBUG /D _WINDOWS /D _UNICODE /D UNICODE /Gm- /EHsc /MT /GS /Gy /fp:precise /Zc:wchar_t /Zc:forScope /Zc:inline /Fo"RELEASE\\" /Fd"RELEASE\VC140.PDB" /Gd /TC /analyze- C:\USERS\패닉\DOCUMENTS\VISUAL STUDIO 2015\PROJECTS\NOXCRYPT-MASTER\NOXMAPFILESVIEWER\NOXMAPFILESVIEWER\LOADDIR.C
^C:\USERS\패닉\DOCUMENTS\VISUAL STUDIO 2015\PROJECTS\NOXCRYPT-MASTER\NOXMAPFILESVIEWER\NOXMAPFILESVIEWER\MYNODEKEY.C
/c /Zi /nologo /W3 /WX- /sdl /O2 /Oi /Oy- /GL /D WIN32 /D NDEBUG /D _WINDOWS /D _UNICODE /D UNICODE /Gm- /EHsc /MT /GS /Gy /fp:precise /Zc:wchar_t /Zc:forScope /Zc:inline /Fo"RELEASE\\" /Fd"RELEASE\VC140.PDB" /Gd /TC /analyze- C:\USERS\패닉\DOCUMENTS\VISUAL STUDIO 2015\PROJECTS\NOXCRYPT-MASTER\NOXMAPFILESVIEWER\NOXMAPFILESVIEWER\MYNODEKEY.C
^C:\USERS\패닉\DOCUMENTS\VISUAL STUDIO 2015\PROJECTS\NOXCRYPT-MASTER\NOXMAPFILESVIEWER\NOXMAPFILESVIEWER\PAIRTILE.C
/c /Zi /nologo /W3 /WX- /sdl /O2 /Oi /Oy- /GL /D WIN32 /D NDEBUG /D _WINDOWS /D _UNICODE /D UNICODE /Gm- /EHsc /MT /GS /Gy /fp:precise /Zc:wchar_t /Zc:forScope /Zc:inline /Fo"RELEASE\\" /Fd"RELEASE\VC140.PDB" /Gd /TC /analyze- C:\USERS\패닉\DOCUMENTS\VISUAL STUDIO 2015\PROJECTS\NOXCRYPT-MASTER\NOXMAPFILESVIEWER\NOXMAPFILESVIEWER\PAIRTILE.C
^C:\USERS\패닉\DOCUMENTS\VISUAL STUDIO 2015\PROJECTS\NOXCRYPT-MASTER\NOXMAPFILESVIEWER\NOXMAPFILESVIEWER\PATALERRCHECK.C
/c /Zi /nologo /W3 /WX- /sdl /O2 /Oi /Oy- /GL /D WIN32 /D NDEBUG /D _WINDOWS /D _UNICODE /D UNICODE /Gm- /EHsc /MT /GS /Gy /fp:precise /Zc:wchar_t /Zc:forScope /Zc:inline /Fo"RELEASE\\" /Fd"RELEASE\VC140.PDB" /Gd /TC /analyze- C:\USERS\패닉\DOCUMENTS\VISUAL STUDIO 2015\PROJECTS\NOXCRYPT-MASTER\NOXMAPFILESVIEWER\NOXMAPFILESVIEWER\PATALERRCHECK.C
^C:\USERS\패닉\DOCUMENTS\VISUAL STUDIO 2015\PROJECTS\NOXCRYPT-MASTER\NOXMAPFILESVIEWER\NOXMAPFILESVIEWER\POLYGONFIX.C
/c /Zi /nologo /W3 /WX- /sdl /O2 /Oi /Oy- /GL /D WIN32 /D NDEBUG /D _WINDOWS /D _UNICODE /D UNICODE /Gm- /EHsc /MT /GS /Gy /fp:precise /Zc:wchar_t /Zc:forScope /Zc:inline /Fo"RELEASE\\" /Fd"RELEASE\VC140.PDB" /Gd /TC /analyze- C:\USERS\패닉\DOCUMENTS\VISUAL STUDIO 2015\PROJECTS\NOXCRYPT-MASTER\NOXMAPFILESVIEWER\NOXMAPFILESVIEWER\POLYGONFIX.C
^C:\USERS\패닉\DOCUMENTS\VISUAL STUDIO 2015\PROJECTS\NOXCRYPT-MASTER\NOXMAPFILESVIEWER\NOXMAPFILESVIEWER\WINMAIN.C
/c /Zi /nologo /W3 /WX- /sdl /O2 /Oi /Oy- /GL /D WIN32 /D NDEBUG /D _WINDOWS /D _UNICODE /D UNICODE /Gm- /EHsc /MT /GS /Gy /fp:precise /Zc:wchar_t /Zc:forScope /Zc:inline /Fo"RELEASE\\" /Fd"RELEASE\VC140.PDB" /Gd /TC /analyze- C:\USERS\패닉\DOCUMENTS\VISUAL STUDIO 2015\PROJECTS\NOXCRYPT-MASTER\NOXMAPFILESVIEWER\NOXMAPFILESVIEWER\WINMAIN.C
^C:\USERS\패닉\DOCUMENTS\VISUAL STUDIO 2015\PROJECTS\NOXCRYPT-MASTER\NOXMAPFILESVIEWER\NOXMAPFILESVIEWER\LISTVIEWITEM.C
/c /Zi /nologo /W3 /WX- /sdl /O2 /Oi /Oy- /GL /D WIN32 /D NDEBUG /D _WINDOWS /D _UNICODE /D UNICODE /Gm- /EHsc /MT /GS /Gy /fp:precise /Zc:wchar_t /Zc:forScope /Zc:inline /Fo"RELEASE\\" /Fd"RELEASE\VC140.PDB" /Gd /TC /analyze- C:\USERS\패닉\DOCUMENTS\VISUAL STUDIO 2015\PROJECTS\NOXCRYPT-MASTER\NOXMAPFILESVIEWER\NOXMAPFILESVIEWER\LISTVIEWITEM.C
^C:\USERS\패닉\DOCUMENTS\VISUAL STUDIO 2015\PROJECTS\NOXCRYPT-MASTER\NOXMAPFILESVIEWER\NOXMAPFILESVIEWER\MAPVIEWPROC.C
/c /Zi /nologo /W3 /WX- /sdl /O2 /Oi /Oy- /GL /D WIN32 /D NDEBUG /D _WINDOWS /D _UNICODE /D UNICODE /Gm- /EHsc /MT /GS /Gy /fp:precise /Zc:wchar_t /Zc:forScope /Zc:inline /Fo"RELEASE\\" /Fd"RELEASE\VC140.PDB" /Gd /TC /analyze- C:\USERS\패닉\DOCUMENTS\VISUAL STUDIO 2015\PROJECTS\NOXCRYPT-MASTER\NOXMAPFILESVIEWER\NOXMAPFILESVIEWER\MAPVIEWPROC.C
^C:\USERS\패닉\DOCUMENTS\VISUAL STUDIO 2015\PROJECTS\NOXCRYPT-MASTER\NOXMAPFILESVIEWER\NOXMAPFILESVIEWER\READMAPDETAIL.C
/c /Zi /nologo /W3 /WX- /sdl /O2 /Oi /Oy- /GL /D WIN32 /D NDEBUG /D _WINDOWS /D _UNICODE /D UNICODE /Gm- /EHsc /MT /GS /Gy /fp:precise /Zc:wchar_t /Zc:forScope /Zc:inline /Fo"RELEASE\\" /Fd"RELEASE\VC140.PDB" /Gd /TC /analyze- C:\USERS\패닉\DOCUMENTS\VISUAL STUDIO 2015\PROJECTS\NOXCRYPT-MASTER\NOXMAPFILESVIEWER\NOXMAPFILESVIEWER\READMAPDETAIL.C
^C:\USERS\패닉\DOCUMENTS\VISUAL STUDIO 2015\PROJECTS\NOXCRYPT-MASTER\NOXMAPFILESVIEWER\NOXMAPFILESVIEWER\MYAPPMAINFORM.C
/c /Zi /nologo /W3 /WX- /sdl /O2 /Oi /Oy- /GL /D WIN32 /D NDEBUG /D _WINDOWS /D _UNICODE /D UNICODE /Gm- /EHsc /MT /GS /Gy /fp:precise /Zc:wchar_t /Zc:forScope /Zc:inline /Fo"RELEASE\\" /Fd"RELEASE\VC140.PDB" /Gd /TC /analyze- C:\USERS\패닉\DOCUMENTS\VISUAL STUDIO 2015\PROJECTS\NOXCRYPT-MASTER\NOXMAPFILESVIEWER\NOXMAPFILESVIEWER\MYAPPMAINFORM.C
^C:\USERS\패닉\DOCUMENTS\VISUAL STUDIO 2015\PROJECTS\NOXCRYPT-MASTER\NOXMAPFILESVIEWER\NOXMAPFILESVIEWER\ANALYSISDLG.C
/c /Zi /nologo /W3 /WX- /sdl /O2 /Oi /Oy- /GL /D WIN32 /D NDEBUG /D _WINDOWS /D _UNICODE /D UNICODE /Gm- /EHsc /MT /GS /Gy /fp:precise /Zc:wchar_t /Zc:forScope /Zc:inline /Fo"RELEASE\\" /Fd"RELEASE\VC140.PDB" /Gd /TC /analyze- C:\USERS\패닉\DOCUMENTS\VISUAL STUDIO 2015\PROJECTS\NOXCRYPT-MASTER\NOXMAPFILESVIEWER\NOXMAPFILESVIEWER\ANALYSISDLG.C
