﻿  analysisDlg.c
analysisDlg.c(43): warning C4244: 'return': 'LRESULT'에서 'BOOL'(으)로 변환하면서 데이터가 손실될 수 있습니다.
analysisDlg.c(68): warning C4312: '형식 캐스팅': 'int'에서 더 큰 'NoxMapNode *'(으)로의 변환입니다.
analysisDlg.c(69): warning C4267: '함수': 'size_t'에서 'int'(으)로 변환하면서 데이터가 손실될 수 있습니다.
analysisDlg.c(91): warning C4312: '형식 캐스팅': 'int'에서 더 큰 'NoxMapNode *'(으)로의 변환입니다.
analysisDlg.c(121): warning C4312: '형식 캐스팅': 'int'에서 더 큰 'NoxMapNode *'(으)로의 변환입니다.
analysisDlg.c(147): warning C4312: '형식 캐스팅': 'int'에서 더 큰 'NoxMapNode *'(으)로의 변환입니다.
analysisDlg.c(196): warning C4267: '초기화 중': 'size_t'에서 'int'(으)로 변환하면서 데이터가 손실될 수 있습니다.
analysisDlg.c(284): warning C4312: '형식 캐스팅': 'int'에서 더 큰 'NoxMapNode *'(으)로의 변환입니다.
  ctrlDraw.c
  excludeMapDlg.c
excludeMapDlg.c(18): warning C4244: 'return': 'LRESULT'에서 'BOOL'(으)로 변환하면서 데이터가 손실될 수 있습니다.
excludeMapDlg.c(84): warning C4267: '=': 'size_t'에서 'int'(으)로 변환하면서 데이터가 손실될 수 있습니다.
excludeMapDlg.c(101): warning C4244: '초기화 중': 'LRESULT'에서 'int'(으)로 변환하면서 데이터가 손실될 수 있습니다.
excludeMapDlg.c(122): warning C4244: '초기화 중': 'LRESULT'에서 'int'(으)로 변환하면서 데이터가 손실될 수 있습니다.
  filterEditDlg.c
  hotTools.c
  ItemOptionHandle.c
ItemOptionHandle.c(19): warning C4267: '함수': 'size_t'에서 'int'(으)로 변환하면서 데이터가 손실될 수 있습니다.
ItemOptionHandle.c(67): warning C4312: '형식 캐스팅': 'int'에서 더 큰 'NoxMapNode *'(으)로의 변환입니다.
  listviewHandler.c
listviewHandler.c(81): warning C4312: '형식 캐스팅': 'int'에서 더 큰 'NoxMapNode *'(으)로의 변환입니다.
listviewHandler.c(73): warning C4090: '초기화 중': 'const' 한정자가 서로 다릅니다.
listviewHandler.c(98): warning C4312: '형식 캐스팅': 'int'에서 더 큰 'NoxMapNode *'(으)로의 변환입니다.
listviewHandler.c(117): warning C4267: '함수': 'size_t'에서 'int'(으)로 변환하면서 데이터가 손실될 수 있습니다.
  listViewItem.c
listViewItem.c(196): warning C4267: '=': 'size_t'에서 'int'(으)로 변환하면서 데이터가 손실될 수 있습니다.
  loadDir.c
loadDir.c(58): warning C4267: '=': 'size_t'에서 'int'(으)로 변환하면서 데이터가 손실될 수 있습니다.
loadDir.c(90): warning C4267: '함수': 'size_t'에서 'int'(으)로 변환하면서 데이터가 손실될 수 있습니다.
  MapCompress.c
MapCompress.c(65): warning C4244: '함수': '__int64'에서 'int'(으)로 변환하면서 데이터가 손실될 수 있습니다.
MapCompress.c(58): warning C4267: '초기화 중': 'size_t'에서 'int'(으)로 변환하면서 데이터가 손실될 수 있습니다.
MapCompress.c(143): warning C4244: '함수': '__int64'에서 'int'(으)로 변환하면서 데이터가 손실될 수 있습니다.
MapCompress.c(136): warning C4267: '초기화 중': 'size_t'에서 'int'(으)로 변환하면서 데이터가 손실될 수 있습니다.
  MapScript.c
MapScript.c(24): warning C4244: '=': '__int64'에서 'int'(으)로 변환하면서 데이터가 손실될 수 있습니다.
MapScript.c(38): warning C4244: '=': '__int64'에서 'int'(으)로 변환하면서 데이터가 손실될 수 있습니다.
  mapViewProc.c
mapViewProc.c(26): warning C4312: '형식 캐스팅': 'int'에서 더 큰 'NoxMapNode *'(으)로의 변환입니다.
mapViewProc.c(33): warning C4267: '=': 'size_t'에서 'int'(으)로 변환하면서 데이터가 손실될 수 있습니다.
mapViewProc.c(38): warning C4311: '형식 캐스팅': 'NoxMapNode *'에서 'int'(으)로 포인터가 잘립니다.
mapViewProc.c(60): warning C4133: '함수': 'BOOL (__cdecl *)(HWND,UINT,WPARAM,LPARAM)'과(와) 'DLGPROC' 사이의 형식이 호환되지 않습니다.
mapViewProc.c(101): warning C4311: '형식 캐스팅': 'NoxMapNode *'에서 'int'(으)로 포인터가 잘립니다.
mapViewProc.c(115): warning C4311: '형식 캐스팅': 'NoxMapNode *'에서 'int'(으)로 포인터가 잘립니다.
  MyAppMainForm.c
MyAppMainForm.c(172): warning C4267: '함수': 'size_t'에서 'int'(으)로 변환하면서 데이터가 손실될 수 있습니다.
MyAppMainForm.c(263): warning C4312: '형식 캐스팅': 'int'에서 더 큰 'NoxMapNode *'(으)로의 변환입니다.
MyAppMainForm.c(292): warning C4133: '함수': 'BOOL (__cdecl *)(HWND,UINT,WPARAM,LPARAM)'과(와) 'DLGPROC' 사이의 형식이 호환되지 않습니다.
MyAppMainForm.c(309): warning C4133: '함수': 'BOOL (__cdecl *)(HWND,UINT,WPARAM,LPARAM)'과(와) 'DLGPROC' 사이의 형식이 호환되지 않습니다.
  MyAppTextUI.c
MyAppTextUI.c(17): warning C4267: '함수': 'size_t'에서 'int'(으)로 변환하면서 데이터가 손실될 수 있습니다.
  MyMessageHandler.c
  myNodeKey.c
myNodeKey.c(31): warning C4244: '함수': 'time_t'에서 'unsigned int'(으)로 변환하면서 데이터가 손실될 수 있습니다.
myNodeKey.c(61): warning C4311: '형식 캐스팅': 'NoxMapNode *'에서 'int'(으)로 포인터가 잘립니다.
  NoxCryptApi.c
  pairTile.c
  patalErrCheck.c
  polygonFix.c
polygonFix.c(118): warning C4244: '함수': '__int64'에서 'int'(으)로 변환하면서 데이터가 손실될 수 있습니다.
polygonFix.c(124): warning C4244: '함수': '__int64'에서 'int'(으)로 변환하면서 데이터가 손실될 수 있습니다.
polygonFix.c(126): warning C4311: '형식 캐스팅': 'char *'에서 'int'(으)로 포인터가 잘립니다.
polygonFix.c(158): warning C4244: '함수': '__int64'에서 'int'(으)로 변환하면서 데이터가 손실될 수 있습니다.
polygonFix.c(150): warning C4267: '초기화 중': 'size_t'에서 'int'(으)로 변환하면서 데이터가 손실될 수 있습니다.
  컴파일하고 있습니다...
  readMapDetail.c
readMapDetail.c(82): warning C4244: '=': '__int64'에서 'int'(으)로 변환하면서 데이터가 손실될 수 있습니다.
readMapDetail.c(97): warning C4244: '함수': '__int64'에서 'int'(으)로 변환하면서 데이터가 손실될 수 있습니다.
readMapDetail.c(99): warning C4244: '=': '__int64'에서 'int'(으)로 변환하면서 데이터가 손실될 수 있습니다.
readMapDetail.c(159): warning C4244: '함수': '__int64'에서 'int'(으)로 변환하면서 데이터가 손실될 수 있습니다.
readMapDetail.c(161): warning C4244: '=': '__int64'에서 'int'(으)로 변환하면서 데이터가 손실될 수 있습니다.
readMapDetail.c(162): warning C4244: '함수': '__int64'에서 'int'(으)로 변환하면서 데이터가 손실될 수 있습니다.
readMapDetail.c(176): warning C4244: '함수': '__int64'에서 'int'(으)로 변환하면서 데이터가 손실될 수 있습니다.
readMapDetail.c(178): warning C4244: '=': '__int64'에서 'int'(으)로 변환하면서 데이터가 손실될 수 있습니다.
readMapDetail.c(193): warning C4244: '함수': '__int64'에서 'int'(으)로 변환하면서 데이터가 손실될 수 있습니다.
readMapDetail.c(195): warning C4244: '=': '__int64'에서 'int'(으)로 변환하면서 데이터가 손실될 수 있습니다.
readMapDetail.c(210): warning C4244: '함수': '__int64'에서 'int'(으)로 변환하면서 데이터가 손실될 수 있습니다.
readMapDetail.c(212): warning C4244: '=': '__int64'에서 'int'(으)로 변환하면서 데이터가 손실될 수 있습니다.
readMapDetail.c(227): warning C4244: '함수': '__int64'에서 'int'(으)로 변환하면서 데이터가 손실될 수 있습니다.
readMapDetail.c(229): warning C4244: '=': '__int64'에서 'int'(으)로 변환하면서 데이터가 손실될 수 있습니다.
readMapDetail.c(244): warning C4244: '함수': '__int64'에서 'int'(으)로 변환하면서 데이터가 손실될 수 있습니다.
readMapDetail.c(246): warning C4244: '=': '__int64'에서 'int'(으)로 변환하면서 데이터가 손실될 수 있습니다.
readMapDetail.c(261): warning C4244: '함수': '__int64'에서 'int'(으)로 변환하면서 데이터가 손실될 수 있습니다.
readMapDetail.c(263): warning C4244: '=': '__int64'에서 'int'(으)로 변환하면서 데이터가 손실될 수 있습니다.
readMapDetail.c(278): warning C4244: '함수': '__int64'에서 'int'(으)로 변환하면서 데이터가 손실될 수 있습니다.
readMapDetail.c(280): warning C4244: '=': '__int64'에서 'int'(으)로 변환하면서 데이터가 손실될 수 있습니다.
readMapDetail.c(296): warning C4244: '함수': '__int64'에서 'int'(으)로 변환하면서 데이터가 손실될 수 있습니다.
readMapDetail.c(298): warning C4244: '=': '__int64'에서 'int'(으)로 변환하면서 데이터가 손실될 수 있습니다.
readMapDetail.c(324): warning C4244: '함수': '__int64'에서 'int'(으)로 변환하면서 데이터가 손실될 수 있습니다.
readMapDetail.c(326): warning C4244: '=': '__int64'에서 'int'(으)로 변환하면서 데이터가 손실될 수 있습니다.
readMapDetail.c(341): warning C4244: '함수': '__int64'에서 'int'(으)로 변환하면서 데이터가 손실될 수 있습니다.
readMapDetail.c(343): warning C4244: '=': '__int64'에서 'int'(으)로 변환하면서 데이터가 손실될 수 있습니다.
readMapDetail.c(358): warning C4244: '함수': '__int64'에서 'int'(으)로 변환하면서 데이터가 손실될 수 있습니다.
readMapDetail.c(360): warning C4244: '=': '__int64'에서 'int'(으)로 변환하면서 데이터가 손실될 수 있습니다.
readMapDetail.c(375): warning C4244: '함수': '__int64'에서 'int'(으)로 변환하면서 데이터가 손실될 수 있습니다.
readMapDetail.c(377): warning C4244: '=': '__int64'에서 'int'(으)로 변환하면서 데이터가 손실될 수 있습니다.
readMapDetail.c(414): warning C4244: '함수': '__int64'에서 'int'(으)로 변환하면서 데이터가 손실될 수 있습니다.
readMapDetail.c(416): warning C4244: '=': '__int64'에서 'int'(으)로 변환하면서 데이터가 손실될 수 있습니다.
  winMain.c
winMain.c(50): warning C4244: 'return': 'WPARAM'에서 'int'(으)로 변환하면서 데이터가 손실될 수 있습니다.
  코드를 생성하고 있습니다.
  All 165 functions were compiled because no usable IPDB/IOBJ from previous compilation was found.
  코드를 생성했습니다.
  NoxMapFilesViewer.vcxproj -> C:\Users\패닉\Documents\Visual Studio 2015\Projects\NoxCrypt-master\NoxMapFilesViewer\x64\Release\NoxMapFilesViewer.exe
