^C:\USERS\패닉\DOCUMENTS\VISUAL STUDIO 2015\PROJECTS\NOXCRYPT-MASTER\NOXMAPFILESVIEWER\NOXMAPFILESVIEWER\X64\RELEASE\ANALYSISDLG.OBJ|C:\USERS\패닉\DOCUMENTS\VISUAL STUDIO 2015\PROJECTS\NOXCRYPT-MASTER\NOXMAPFILESVIEWER\NOXMAPFILESVIEWER\X64\RELEASE\CTRLDRAW.OBJ|C:\USERS\패닉\DOCUMENTS\VISUAL STUDIO 2015\PROJECTS\NOXCRYPT-MASTER\NOXMAPFILESVIEWER\NOXMAPFILESVIEWER\X64\RELEASE\EXCLUDEMAPDLG.OBJ|C:\USERS\패닉\DOCUMENTS\VISUAL STUDIO 2015\PROJECTS\NOXCRYPT-MASTER\NOXMAPFILESVIEWER\NOXMAPFILESVIEWER\X64\RELEASE\FILTEREDITDLG.OBJ|C:\USERS\패닉\DOCUMENTS\VISUAL STUDIO 2015\PROJECTS\NOXCRYPT-MASTER\NOXMAPFILESVIEWER\NOXMAPFILESVIEWER\X64\RELEASE\HOTTOOLS.OBJ|C:\USERS\패닉\DOCUMENTS\VISUAL STUDIO 2015\PROJECTS\NOXCRYPT-MASTER\NOXMAPFILESVIEWER\NOXMAPFILESVIEWER\X64\RELEASE\ITEMOPTIONHANDLE.OBJ|C:\USERS\패닉\DOCUMENTS\VISUAL STUDIO 2015\PROJECTS\NOXCRYPT-MASTER\NOXMAPFILESVIEWER\NOXMAPFILESVIEWER\X64\RELEASE\LISTVIEWHANDLER.OBJ|C:\USERS\패닉\DOCUMENTS\VISUAL STUDIO 2015\PROJECTS\NOXCRYPT-MASTER\NOXMAPFILESVIEWER\NOXMAPFILESVIEWER\X64\RELEASE\LISTVIEWITEM.OBJ|C:\USERS\패닉\DOCUMENTS\VISUAL STUDIO 2015\PROJECTS\NOXCRYPT-MASTER\NOXMAPFILESVIEWER\NOXMAPFILESVIEWER\X64\RELEASE\LOADDIR.OBJ|C:\USERS\패닉\DOCUMENTS\VISUAL STUDIO 2015\PROJECTS\NOXCRYPT-MASTER\NOXMAPFILESVIEWER\NOXMAPFILESVIEWER\X64\RELEASE\MAPCOMPRESS.OBJ|C:\USERS\패닉\DOCUMENTS\VISUAL STUDIO 2015\PROJECTS\NOXCRYPT-MASTER\NOXMAPFILESVIEWER\NOXMAPFILESVIEWER\X64\RELEASE\MAPSCRIPT.OBJ|C:\USERS\패닉\DOCUMENTS\VISUAL STUDIO 2015\PROJECTS\NOXCRYPT-MASTER\NOXMAPFILESVIEWER\NOXMAPFILESVIEWER\X64\RELEASE\MAPVIEWPROC.OBJ|C:\USERS\패닉\DOCUMENTS\VISUAL STUDIO 2015\PROJECTS\NOXCRYPT-MASTER\NOXMAPFILESVIEWER\NOXMAPFILESVIEWER\X64\RELEASE\MYAPPMAINFORM.OBJ|C:\USERS\패닉\DOCUMENTS\VISUAL STUDIO 2015\PROJECTS\NOXCRYPT-MASTER\NOXMAPFILESVIEWER\NOXMAPFILESVIEWER\X64\RELEASE\MYAPPTEXTUI.OBJ|C:\USERS\패닉\DOCUMENTS\VISUAL STUDIO 2015\PROJECTS\NOXCRYPT-MASTER\NOXMAPFILESVIEWER\NOXMAPFILESVIEWER\X64\RELEASE\MYMESSAGEHANDLER.OBJ|C:\USERS\패닉\DOCUMENTS\VISUAL STUDIO 2015\PROJECTS\NOXCRYPT-MASTER\NOXMAPFILESVIEWER\NOXMAPFILESVIEWER\X64\RELEASE\MYNODEKEY.OBJ|C:\USERS\패닉\DOCUMENTS\VISUAL STUDIO 2015\PROJECTS\NOXCRYPT-MASTER\NOXMAPFILESVIEWER\NOXMAPFILESVIEWER\X64\RELEASE\NOXCRYPTAPI.OBJ|C:\USERS\패닉\DOCUMENTS\VISUAL STUDIO 2015\PROJECTS\NOXCRYPT-MASTER\NOXMAPFILESVIEWER\NOXMAPFILESVIEWER\X64\RELEASE\NOXMAPFILESVIEWER.RES|C:\USERS\패닉\DOCUMENTS\VISUAL STUDIO 2015\PROJECTS\NOXCRYPT-MASTER\NOXMAPFILESVIEWER\NOXMAPFILESVIEWER\X64\RELEASE\PAIRTILE.OBJ|C:\USERS\패닉\DOCUMENTS\VISUAL STUDIO 2015\PROJECTS\NOXCRYPT-MASTER\NOXMAPFILESVIEWER\NOXMAPFILESVIEWER\X64\RELEASE\PATALERRCHECK.OBJ|C:\USERS\패닉\DOCUMENTS\VISUAL STUDIO 2015\PROJECTS\NOXCRYPT-MASTER\NOXMAPFILESVIEWER\NOXMAPFILESVIEWER\X64\RELEASE\POLYGONFIX.OBJ|C:\USERS\패닉\DOCUMENTS\VISUAL STUDIO 2015\PROJECTS\NOXCRYPT-MASTER\NOXMAPFILESVIEWER\NOXMAPFILESVIEWER\X64\RELEASE\READMAPDETAIL.OBJ|C:\USERS\패닉\DOCUMENTS\VISUAL STUDIO 2015\PROJECTS\NOXCRYPT-MASTER\NOXMAPFILESVIEWER\NOXMAPFILESVIEWER\X64\RELEASE\WINMAIN.OBJ
C:\USERS\패닉\DOCUMENTS\VISUAL STUDIO 2015\PROJECTS\NOXCRYPT-MASTER\NOXMAPFILESVIEWER\X64\RELEASE\NOXMAPFILESVIEWER.EXE
C:\USERS\패닉\DOCUMENTS\VISUAL STUDIO 2015\PROJECTS\NOXCRYPT-MASTER\NOXMAPFILESVIEWER\X64\RELEASE\NOXMAPFILESVIEWER.IPDB
C:\USERS\패닉\DOCUMENTS\VISUAL STUDIO 2015\PROJECTS\NOXCRYPT-MASTER\NOXMAPFILESVIEWER\X64\RELEASE\NOXMAPFILESVIEWER.IOBJ
C:\USERS\패닉\DOCUMENTS\VISUAL STUDIO 2015\PROJECTS\NOXCRYPT-MASTER\NOXMAPFILESVIEWER\X64\RELEASE\NOXMAPFILESVIEWER.PDB
